Webhoster,Xmlfile,Agent ID ,Property ID,Source Updated Date,NEW/UPDATED,Status
/agentbox_w,BELLERANDWICK_2015-03-31-11-38-02,BELLERANDWICK,14P0914,2015-03-31 10:41:19,NEW,leased,
/agentbox_w,BELLERANDWICK_2015-04-01-09-38-01,BELLERANDWICK,14P1155,2015-04-01 09:32:14,NEW,leased,
/agentbox_w,BELLERANDWICK_2015-04-07-10-38-01,BELLERANDWICK,14P1165,2015-04-07 10:35:36,NEW,leased,
/agentbox_w,BELLERANDWICK_2015-04-07-11-38-01,BELLERANDWICK,14P1445,2015-04-07 10:39:23,NEW,leased,
/agentbox_w,BELLERANDWICK_2015-04-08-12-38-01,BELLERANDWICK,14P0843,2015-04-08 11:47:29,NEW,leased,
/agentbox_w,BELLERANDWICK_2015-04-08-15-38-01,BELLERANDWICK,14P1424,2015-04-08 14:51:38,NEW,leased,
/agentbox_w,BELLERANDWICK_2015-04-14-11-38-01,BELLERANDWICK,14P1498,2015-04-14 10:54:50,NEW,leased,
/agentbox_w,BELLERANDWICK_2015-04-14-15-38-01,BELLERANDWICK,14P1534,2015-04-14 14:53:13,NEW,leased,
/agentbox_w,BELLERANDWICK_2015-04-15-14-38-01,BELLERANDWICK,14P1321,2015-04-15 14:36:14,NEW,sold,
/agentbox_w,BELLERANDWICK_2015-04-15-17-38-01,BELLERANDWICK,14P1155,2015-04-15 17:30:02,NEW,leased,
/agentbox_w,BELLERANDWICK_2015-04-15-17-38-01,BELLERANDWICK,14P1481,2015-04-15 17:35:10,NEW,leased,
/agentbox_w,BELLERANDWICK_2015-04-16-10-38-02,BELLERANDWICK,14P1321,2015-04-16 10:21:55,NEW,sold,
/agentbox_w,BELLERANDWICK_2015-04-17-15-38-01,BELLERANDWICK,14P0865,2015-04-17 14:40:23,NEW,leased,
/agentbox_w,BELLERANDWICK_2015-04-20-11-38-01,BELLERANDWICK,14P0985,2015-04-20 11:24:13,NEW,leased,
/agentbox_w,BELLERANDWICK_2015-04-20-14-38-01,BELLERANDWICK,14P1519,2015-04-20 14:23:57,NEW,leased,
/agentbox_w,BELLERANDWICK_2015-04-21-10-38-01,BELLERANDWICK,14P0337,2015-04-21 10:04:30,NEW,leased,
/agentbox_w,BELLERANDWICK_2015-04-23-16-38-01,BELLERANDWICK,14P1355,2015-04-23 16:19:42,NEW,withdrawn,
/agentbox_w,BELLERANDWICK_2015-04-24-12-38-01,BELLERANDWICK,14P0843,2015-04-24 11:56:01,NEW,leased,
/agentbox_w,BELLERANDWICK_2015-04-24-12-38-01,BELLERANDWICK,14P0914,2015-04-24 12:02:48,NEW,leased,
/agentbox_w,BELLERANDWICK_2015-04-24-15-38-01,BELLERANDWICK,14P0914,2015-04-24 15:27:56,NEW,leased,
/agentbox_w,BELLERANDWICK_2015-04-24-16-38-01,BELLERANDWICK,14P0485,2015-04-24 16:19:20,NEW,offmarket,
/agentbox_w,BELLERANDWICK_2015-04-27-10-38-02,BELLERANDWICK,14P0865,2015-04-27 09:44:30,NEW,leased,
/agentbox_w,BELLERANDWICK_2015-04-29-09-38-01,BELLERANDWICK,14P0861,2015-04-29 09:34:37,NEW,leased,
/agentbox_w,BELLERANDWICK_2015-04-30-12-38-01,BELLERANDWICK,14P0985,2015-04-30 12:33:38,NEW,leased,
/agentbox_w,BELLERANDWICK_2015-04-30-14-38-01,BELLERANDWICK,14P0985,2015-04-30 14:35:48,NEW,leased,
/agentbox_w,BELLERANDWICK_2015-05-01-07-38-01,BELLERANDWICK,14P0366,2015-05-01 06:56:58,NEW,leased,
/agentbox_w,BELLERANDWICK_2015-05-01-11-38-01,BELLERANDWICK,14P1395,2015-05-01 11:30:51,NEW,sold,
